{
  "variants": {
    "axis=x": {
      "model": "miners-minerals:block/serpentine_pillar_horizontal",
      "x": 90,
      "y": 90
    },
    "axis=y": {
      "model": "miners-minerals:block/serpentine_pillar"
    },
    "axis=z": {
      "model": "miners-minerals:block/serpentine_pillar_horizontal",
      "x": 90
    }
  }
}
